%YAML 1.1
%TAG !u! tag:unity3d.com,2011:
--- !u!1001 &6680970387387051802
PrefabInstance:
  m_ObjectHideFlags: 0
  serializedVersion: 2
  m_Modification:
    m_TransformParent: {fileID: 0}
    m_Modifications:
    - target: {fileID: 2581647335949190684, guid: 44053b65269091c4abaf6ce6feb86e18, type: 3}
      propertyPath: m_Color.r
      value: 1
      objectReference: {fileID: 0}
    - target: {fileID: 2581647335949190684, guid: 44053b65269091c4abaf6ce6feb86e18, type: 3}
      propertyPath: m_Color.g
      value: 1
      objectReference: {fileID: 0}
    - target: {fileID: 2581647335949190684, guid: 44053b65269091c4abaf6ce6feb86e18, type: 3}
      propertyPath: m_Color.b
      value: 1
      objectReference: {fileID: 0}
    - target: {fileID: 2581647335949190684, guid: 44053b65269091c4abaf6ce6feb86e18, type: 3}
      propertyPath: m_Sprites.Array.data[1]
      value: 
      objectReference: {fileID: 21300000, guid: 86265d0553a3de34390c0e57f802de3a, type: 3}
    - target: {fileID: 2581647335949190684, guid: 44053b65269091c4abaf6ce6feb86e18, type: 3}
      propertyPath: m_LocalAABB.m_Center.x
      value: 0.27191567
      objectReference: {fileID: 0}
    - target: {fileID: 2581647335949190684, guid: 44053b65269091c4abaf6ce6feb86e18, type: 3}
      propertyPath: m_LocalAABB.m_Center.y
      value: 0.057976335
      objectReference: {fileID: 0}
    - target: {fileID: 2581647335949190684, guid: 44053b65269091c4abaf6ce6feb86e18, type: 3}
      propertyPath: m_LocalAABB.m_Extent.x
      value: 3.690184
      objectReference: {fileID: 0}
    - target: {fileID: 2581647335949190684, guid: 44053b65269091c4abaf6ce6feb86e18, type: 3}
      propertyPath: m_LocalAABB.m_Extent.y
      value: 0.4910747
      objectReference: {fileID: 0}
    - target: {fileID: 2581647335949190684, guid: 44053b65269091c4abaf6ce6feb86e18, type: 3}
      propertyPath: m_Sprites.Array.data[0]
      value: 
      objectReference: {fileID: 21300000, guid: 86265d0553a3de34390c0e57f802de3a, type: 3}
    - target: {fileID: 2581647335949190684, guid: 44053b65269091c4abaf6ce6feb86e18, type: 3}
      propertyPath: m_Sprites.Array.data[2]
      value: 
      objectReference: {fileID: 21300000, guid: 86265d0553a3de34390c0e57f802de3a, type: 3}
    - target: {fileID: 2581647335949190684, guid: 44053b65269091c4abaf6ce6feb86e18, type: 3}
      propertyPath: m_Sprites.Array.data[3]
      value: 
      objectReference: {fileID: 21300000, guid: 86265d0553a3de34390c0e57f802de3a, type: 3}
    - target: {fileID: 2581647335949190684, guid: 44053b65269091c4abaf6ce6feb86e18, type: 3}
      propertyPath: m_Materials.Array.data[0]
      value: 
      objectReference: {fileID: 10754, guid: 0000000000000000f000000000000000, type: 0}
    - target: {fileID: 2581647335949190684, guid: 44053b65269091c4abaf6ce6feb86e18, type: 3}
      propertyPath: m_Materials.Array.data[1]
      value: 
      objectReference: {fileID: 10754, guid: 0000000000000000f000000000000000, type: 0}
    - target: {fileID: 2581647335949190685, guid: 44053b65269091c4abaf6ce6feb86e18, type: 3}
      propertyPath: m_LocalPosition.x
      value: 0
      objectReference: {fileID: 0}
    - target: {fileID: 2581647335949190685, guid: 44053b65269091c4abaf6ce6feb86e18, type: 3}
      propertyPath: m_LocalPosition.y
      value: 0
      objectReference: {fileID: 0}
    - target: {fileID: 2581647335949190685, guid: 44053b65269091c4abaf6ce6feb86e18, type: 3}
      propertyPath: m_LocalPosition.z
      value: 0
      objectReference: {fileID: 0}
    - target: {fileID: 2581647335949190685, guid: 44053b65269091c4abaf6ce6feb86e18, type: 3}
      propertyPath: m_LocalRotation.x
      value: 0
      objectReference: {fileID: 0}
    - target: {fileID: 2581647335949190685, guid: 44053b65269091c4abaf6ce6feb86e18, type: 3}
      propertyPath: m_LocalRotation.y
      value: 0
      objectReference: {fileID: 0}
    - target: {fileID: 2581647335949190685, guid: 44053b65269091c4abaf6ce6feb86e18, type: 3}
      propertyPath: m_LocalRotation.z
      value: 0
      objectReference: {fileID: 0}
    - target: {fileID: 2581647335949190685, guid: 44053b65269091c4abaf6ce6feb86e18, type: 3}
      propertyPath: m_LocalRotation.w
      value: 1
      objectReference: {fileID: 0}
    - target: {fileID: 2581647335949190685, guid: 44053b65269091c4abaf6ce6feb86e18, type: 3}
      propertyPath: m_RootOrder
      value: 0
      objectReference: {fileID: 0}
    - target: {fileID: 2581647335949190685, guid: 44053b65269091c4abaf6ce6feb86e18, type: 3}
      propertyPath: m_LocalEulerAnglesHint.x
      value: 0
      objectReference: {fileID: 0}
    - target: {fileID: 2581647335949190685, guid: 44053b65269091c4abaf6ce6feb86e18, type: 3}
      propertyPath: m_LocalEulerAnglesHint.y
      value: 0
      objectReference: {fileID: 0}
    - target: {fileID: 2581647335949190685, guid: 44053b65269091c4abaf6ce6feb86e18, type: 3}
      propertyPath: m_LocalEulerAnglesHint.z
      value: 0
      objectReference: {fileID: 0}
    - target: {fileID: 2581647335949190686, guid: 44053b65269091c4abaf6ce6feb86e18, type: 3}
      propertyPath: m_Name
      value: DeathPlatform
      objectReference: {fileID: 0}
    - target: {fileID: 2581647335949190686, guid: 44053b65269091c4abaf6ce6feb86e18, type: 3}
      propertyPath: m_TagString
      value: Death
      objectReference: {fileID: 0}
    - target: {fileID: 2581647335949190687, guid: 44053b65269091c4abaf6ce6feb86e18, type: 3}
      propertyPath: m_SpriteShape
      value: 
      objectReference: {fileID: 11400000, guid: cbaca803db32ec24ea91d13052a25c43, type: 2}
    - target: {fileID: 2581647335949190690, guid: 44053b65269091c4abaf6ce6feb86e18, type: 3}
      propertyPath: m_Points.Array.data[0].x
      value: -3.4075203
      objectReference: {fileID: 0}
    - target: {fileID: 2581647335949190690, guid: 44053b65269091c4abaf6ce6feb86e18, type: 3}
      propertyPath: m_Points.Array.data[0].y
      value: 0.09796105
      objectReference: {fileID: 0}
    - target: {fileID: 2581647335949190690, guid: 44053b65269091c4abaf6ce6feb86e18, type: 3}
      propertyPath: m_Points.Array.data[1].x
      value: -2.6224976
      objectReference: {fileID: 0}
    - target: {fileID: 2581647335949190690, guid: 44053b65269091c4abaf6ce6feb86e18, type: 3}
      propertyPath: m_Points.Array.data[1].y
      value: 0.10833425
      objectReference: {fileID: 0}
    - target: {fileID: 2581647335949190690, guid: 44053b65269091c4abaf6ce6feb86e18, type: 3}
      propertyPath: m_Points.Array.data[2].x
      value: 0.93938524
      objectReference: {fileID: 0}
    - target: {fileID: 2581647335949190690, guid: 44053b65269091c4abaf6ce6feb86e18, type: 3}
      propertyPath: m_Points.Array.data[2].y
      value: 0.08738416
      objectReference: {fileID: 0}
    - target: {fileID: 2581647335949190690, guid: 44053b65269091c4abaf6ce6feb86e18, type: 3}
      propertyPath: m_Points.Array.data[3].x
      value: 2.009304
      objectReference: {fileID: 0}
    - target: {fileID: 2581647335949190690, guid: 44053b65269091c4abaf6ce6feb86e18, type: 3}
      propertyPath: m_Points.Array.data[3].y
      value: 0.08892072
      objectReference: {fileID: 0}
    - target: {fileID: 2581647335949190690, guid: 44053b65269091c4abaf6ce6feb86e18, type: 3}
      propertyPath: m_Points.Array.data[4].x
      value: 3.021969
      objectReference: {fileID: 0}
    - target: {fileID: 2581647335949190690, guid: 44053b65269091c4abaf6ce6feb86e18, type: 3}
      propertyPath: m_Points.Array.data[4].y
      value: 0.104392454
      objectReference: {fileID: 0}
    - target: {fileID: 2581647335949190690, guid: 44053b65269091c4abaf6ce6feb86e18, type: 3}
      propertyPath: m_Points.Array.data[5].x
      value: 3.4930594
      objectReference: {fileID: 0}
    - target: {fileID: 2581647335949190690, guid: 44053b65269091c4abaf6ce6feb86e18, type: 3}
      propertyPath: m_Points.Array.data[5].y
      value: 0.119152434
      objectReference: {fileID: 0}
    - target: {fileID: 2581647335949190690, guid: 44053b65269091c4abaf6ce6feb86e18, type: 3}
      propertyPath: m_Points.Array.data[6].x
      value: 3.93332
      objectReference: {fileID: 0}
    - target: {fileID: 2581647335949190690, guid: 44053b65269091c4abaf6ce6feb86e18, type: 3}
      propertyPath: m_Points.Array.data[6].y
      value: 0.13954999
      objectReference: {fileID: 0}
    m_RemovedComponents: []
  m_SourcePrefab: {fileID: 100100000, guid: 44053b65269091c4abaf6ce6feb86e18, type: 3}
