%YAML 1.1
%TAG !u! tag:unity3d.com,2011:
--- !u!1 &540538824992258410
GameObject:
  m_ObjectHideFlags: 0
  m_CorrespondingSourceObject: {fileID: 0}
  m_PrefabInstance: {fileID: 0}
  m_PrefabAsset: {fileID: 0}
  serializedVersion: 6
  m_Component:
  - component: {fileID: 540538824992258408}
  - component: {fileID: 540538824992258411}
  m_Layer: 0
  m_Name: ChainBridge
  m_TagString: Untagged
  m_Icon: {fileID: 0}
  m_NavMeshLayer: 0
  m_StaticEditorFlags: 0
  m_IsActive: 1
--- !u!4 &540538824992258408
Transform:
  m_ObjectHideFlags: 0
  m_CorrespondingSourceObject: {fileID: 0}
  m_PrefabInstance: {fileID: 0}
  m_PrefabAsset: {fileID: 0}
  m_GameObject: {fileID: 540538824992258410}
  m_LocalRotation: {x: 0, y: 0, z: 0, w: 1}
  m_LocalPosition: {x: 0, y: 0, z: 0}
  m_LocalScale: {x: 1, y: 1, z: 1}
  m_Children: []
  m_Father: {fileID: 0}
  m_RootOrder: 0
  m_LocalEulerAnglesHint: {x: 0, y: 0, z: 0}
--- !u!114 &540538824992258411
MonoBehaviour:
  m_ObjectHideFlags: 0
  m_CorrespondingSourceObject: {fileID: 0}
  m_PrefabInstance: {fileID: 0}
  m_PrefabAsset: {fileID: 0}
  m_GameObject: {fileID: 540538824992258410}
  m_Enabled: 1
  m_EditorHideFlags: 0
  m_Script: {fileID: 11500000, guid: 548add69c3febb74fac7d0a73f1036c9, type: 3}
  m_Name: 
  m_EditorClassIdentifier: 
  SegmentsPrefabs:
  - {fileID: 21254262, guid: da895f0f8f000f6488fcdee87b08b1f8, type: 3}
  - {fileID: 21206008, guid: 466510625b495a74bb6e580552b5d93d, type: 3}
  SegmentsMode: 0
  OverflowMode: 0
  useBendLimit: 1
  bendLimit: 45
  HangFirstSegment: 1
  FirstSegmentConnectionAnchor: {x: -3.0307817, y: -0.020283699}
  LastSegmentConnectionAnchor: {x: 3.0270853, y: 0.008556604}
  HangLastSegment: 1
  overlapFactor: -0.345
  nodes:
  - {x: -3, y: 0, z: 0}
  - {x: 3, y: 0, z: 0}
  WithPhysics: 1
